{
  "searchSpec": {
    "itemsType": "avl_unit",
    "propName": "sys_name",
    "propValueMask": "*",
    "sortType": "sys_name",
    "propType": "property",
    "or_logic": "0"
  },
  "dataFlags": 257,
  "totalItemsCount": 186,
  "indexFrom": 0,
  "indexTo": 0,
  "items": [
    {
      "nm": "CHEVY",
      "cls": 2,
      "id": 4785,
      "mu": 0,
      "uid": "4764354586",
      "uid2": "",
      "hw": 435,
      "ph": "",
      "ph2": "",
      "psw": "",
      "act": 1,
      "dactt": 0,
      "vp": null,
      "retr": null,
      "uacl": 880333093887
    },
    {
      "nm": "F002",
      "cls": 2,
      "id": 4242,
      "mu": 0,
      "uid": "4764354574",
      "uid2": "",
      "hw": 435,
      "ph": "+526561489973",
      "ph2": "",
      "psw": "",
      "act": 1,
      "dactt": 0,
      "vp": null,
      "retr": null,
      "uacl": 880333093887
    },
    {
      "nm": "F003",
      "cls": 2,
      "id": 4243,
      "mu": 0,
      "uid": "4764353300",
      "uid2": "",
      "hw": 435,
      "ph": "+526563593598",
      "ph2": "",
      "psw": "",
      "act": 1,
      "dactt": 0,
      "vp": null,
      "retr": null,
      "uacl": 880333093887
    },
    {
      "nm": "F004",
      "cls": 2,
      "id": 4767,
      "mu": 0,
      "uid": "4764354719",
      "uid2": "",
      "hw": 435,
      "ph": "",
      "ph2": "",
      "psw": "",
      "act": 1,
      "dactt": 0,
      "vp": null,
      "retr": null,
      "uacl": 880333093887
    },
    {
      "nm": "F005",
      "cls": 2,
      "id": 4282,
      "mu": 0,
      "uid": "4764353284",
      "uid2": "",
      "hw": 435,
      "ph": "+526563372455",
      "ph2": "",
      "psw": "",
      "act": 1,
      "dactt": 0,
      "vp": null,
      "retr": null,
      "uacl": 880333093887
    },
    {
      "nm": "F006",
      "cls": 2,
      "id": 4283,
      "mu": 0,
      "uid": "4764353383",
      "uid2": "",
      "hw": 435,
      "ph": "+526563048239",
      "ph2": "",
      "psw": "",
      "act": 1,
      "dactt": 0,
      "vp": null,
      "retr": null,
      "uacl": 880333093887
    },
    {
      "nm": "F007",
      "cls": 2,
      "id": 4284,
      "mu": 0,
      "uid": "4764353293",
      "uid2": "",
      "hw": 435,
      "ph": "+526562699406",
      "ph2": "",
      "psw": "",
      "act": 1,
      "dactt": 0,
      "vp": null,
      "retr": null,
      "uacl": 880333093887
    },
    {
      "nm": "F008",
      "cls": 2,
      "id": 4285,
      "mu": 0,
      "uid": "4764353394",
      "uid2": "",
      "hw": 435,
      "ph": "+526563371898",
      "ph2": "",
      "psw": "",
      "act": 1,
      "dactt": 0,
      "vp": null,
      "retr": null,
      "uacl": 880333093887
    },
    {
      "nm": "F009",
      "cls": 2,
      "id": 4286,
      "mu": 0,
      "uid": "4764353267",
      "uid2": "",
      "hw": 435,
      "ph": "+526563372376",
      "ph2": "",
      "psw": "",
      "act": 1,
      "dactt": 0,
      "vp": null,
      "retr": null,
      "uacl": 880333093887
    },
    {
      "nm": "F010",
      "cls": 2,
      "id": 4287,
      "mu": 0,
      "uid": "4764353270",
      "uid2": "",
      "hw": 435,
      "ph": "+526563010457",
      "ph2": "",
      "psw": "",
      "act": 1,
      "dactt": 0,
      "vp": null,
      "retr": null,
      "uacl": 880333093887
    },
    {
      "nm": "F011",
      "cls": 2,
      "id": 4170,
      "mu": 0,
      "uid": "4764354634",
      "uid2": "",
      "hw": 435,
      "ph": "+526563373875",
      "ph2": "",
      "psw": "",
      "act": 1,
      "dactt": 0,
      "vp": null,
      "retr": null,
      "uacl": 880333093887
    },
    {
      "nm": "F012",
      "cls": 2,
      "id": 4288,
      "mu": 0,
      "uid": "4764354546",
      "uid2": "",
      "hw": 435,
      "ph": "+526567502237",
      "ph2": "",
      "psw": "",
      "act": 1,
      "dactt": 0,
      "vp": null,
      "retr": null,
      "uacl": 880333093887
    },
    {
      "nm": "F013",
      "cls": 2,
      "id": 4289,
      "mu": 0,
      "uid": "4764353287",
      "uid2": "",
      "hw": 435,
      "ph": "+526563372679",
      "ph2": "",
      "psw": "",
      "act": 1,
      "dactt": 0,
      "vp": null,
      "retr": null,
      "uacl": 880333093887
    },
    {
      "nm": "F014",
      "cls": 2,
      "id": 4290,
      "mu": 0,
      "uid": "4764354732",
      "uid2": "",
      "hw": 435,
      "ph": "+526562157763",
      "ph2": "",
      "psw": "",
      "act": 1,
      "dactt": 0,
      "vp": null,
      "retr": null,
      "uacl": 880333093887
    },
    {
      "nm": "F015",
      "cls": 2,
      "id": 4291,
      "mu": 0,
      "uid": "4764353277",
      "uid2": "",
      "hw": 435,
      "ph": "+526566742105",
      "ph2": "",
      "psw": "",
      "act": 1,
      "dactt": 0,
      "vp": null,
      "retr": null,
      "uacl": 880333093887
    },
    {
      "nm": "F016",
      "cls": 2,
      "id": 4292,
      "mu": 0,
      "uid": "4675104884",
      "uid2": "",
      "hw": 435,
      "ph": "+526563371309",
      "ph2": "",
      "psw": "",
      "act": 1,
      "dactt": 0,
      "vp": null,
      "retr": null,
      "uacl": 880333093887
    },
    {
      "nm": "F017",
      "cls": 2,
      "id": 4293,
      "mu": 0,
      "uid": "4764353262",
      "uid2": "",
      "hw": 435,
      "ph": "+526566380539",
      "ph2": "",
      "psw": "",
      "act": 1,
      "dactt": 0,
      "vp": null,
      "retr": null,
      "uacl": 880333093887
    },
    {
      "nm": "F019",
      "cls": 2,
      "id": 4160,
      "mu": 0,
      "uid": "4764353299",
      "uid2": "",
      "hw": 435,
      "ph": "+526563372488",
      "ph2": "",
      "psw": "",
      "act": 1,
      "dactt": 0,
      "vp": null,
      "retr": null,
      "uacl": 880333093887
    },
    {
      "nm": "F021",
      "cls": 2,
      "id": 4294,
      "mu": 0,
      "uid": "4764354855",
      "uid2": "",
      "hw": 435,
      "ph": "+526563509277",
      "ph2": "",
      "psw": "",
      "act": 1,
      "dactt": 0,
      "vp": null,
      "retr": null,
      "uacl": 880333093887
    },
    {
      "nm": "F022",
      "cls": 2,
      "id": 4295,
      "mu": 0,
      "uid": "4764354854",
      "uid2": "",
      "hw": 435,
      "ph": "+526563213632",
      "ph2": "",
      "psw": "",
      "act": 1,
      "dactt": 0,
      "vp": null,
      "retr": null,
      "uacl": 880333093887
    },
    {
      "nm": "F023",
      "cls": 2,
      "id": 4296,
      "mu": 0,
      "uid": "4764354851",
      "uid2": "",
      "hw": 435,
      "ph": "+526562767733",
      "ph2": "",
      "psw": "",
      "act": 1,
      "dactt": 0,
      "vp": null,
      "retr": null,
      "uacl": 880333093887
    },
    {
      "nm": "F024",
      "cls": 2,
      "id": 4145,
      "mu": 0,
      "uid": "4764354859",
      "uid2": "",
      "hw": 435,
      "ph": "+526563386361",
      "ph2": "",
      "psw": "",
      "act": 1,
      "dactt": 0,
      "vp": null,
      "retr": null,
      "uacl": 880333093887
    },
    {
      "nm": "F025",
      "cls": 2,
      "id": 4297,
      "mu": 0,
      "uid": "4764354858",
      "uid2": "",
      "hw": 435,
      "ph": "+526563104959",
      "ph2": "",
      "psw": "",
      "act": 1,
      "dactt": 0,
      "vp": null,
      "retr": null,
      "uacl": 880333093887
    },
    {
      "nm": "F026",
      "cls": 2,
      "id": 4298,
      "mu": 0,
      "uid": "4764354849",
      "uid2": "",
      "hw": 435,
      "ph": "+526561308652",
      "ph2": "",
      "psw": "",
      "act": 1,
      "dactt": 0,
      "vp": null,
      "retr": null,
      "uacl": 880333093887
    },
    {
      "nm": "F027",
      "cls": 2,
      "id": 4280,
      "mu": 0,
      "uid": "4764354850",
      "uid2": "",
      "hw": 435,
      "ph": "+526563114605",
      "ph2": "",
      "psw": "",
      "act": 1,
      "dactt": 0,
      "vp": null,
      "retr": null,
      "uacl": 880333093887
    },
    {
      "nm": "F028",
      "cls": 2,
      "id": 4164,
      "mu": 0,
      "uid": "4764354853",
      "uid2": "",
      "hw": 435,
      "ph": "+526563158588",
      "ph2": "",
      "psw": "",
      "act": 1,
      "dactt": 0,
      "vp": null,
      "retr": null,
      "uacl": 880333093887
    },
    {
      "nm": "F029",
      "cls": 2,
      "id": 4299,
      "mu": 0,
      "uid": "4764354856",
      "uid2": "",
      "hw": 435,
      "ph": "+526566264711",
      "ph2": "",
      "psw": "",
      "act": 1,
      "dactt": 0,
      "vp": null,
      "retr": null,
      "uacl": 880333093887
    },
    {
      "nm": "F030",
      "cls": 2,
      "id": 4300,
      "mu": 0,
      "uid": "4764354857",
      "uid2": "",
      "hw": 435,
      "ph": "+526566389581",
      "ph2": "",
      "psw": "",
      "act": 1,
      "dactt": 0,
      "vp": null,
      "retr": null,
      "uacl": 880333093887
    },
    {
      "nm": "F031",
      "cls": 2,
      "id": 4158,
      "mu": 0,
      "uid": "4764348144",
      "uid2": "",
      "hw": 435,
      "ph": "+526567616378",
      "ph2": "",
      "psw": "",
      "act": 1,
      "dactt": 0,
      "vp": null,
      "retr": null,
      "uacl": 880333093887
    },
    {
      "nm": "F033",
      "cls": 2,
      "id": 4302,
      "mu": 0,
      "uid": "4764339389",
      "uid2": "",
      "hw": 435,
      "ph": "+526566384219",
      "ph2": "",
      "psw": "",
      "act": 1,
      "dactt": 0,
      "vp": null,
      "retr": null,
      "uacl": 880333093887
    },
    {
      "nm": "F034",
      "cls": 2,
      "id": 7015,
      "mu": 0,
      "uid": "4675288225",
      "uid2": "",
      "hw": 435,
      "ph": "",
      "ph2": "",
      "psw": "",
      "act": 1,
      "dactt": 0,
      "vp": null,
      "retr": null,
      "uacl": 880333093887
    },
    {
      "nm": "F035",
      "cls": 2,
      "id": 7016,
      "mu": 0,
      "uid": "4675335728",
      "uid2": "",
      "hw": 435,
      "ph": "+526563372550",
      "ph2": "",
      "psw": "",
      "act": 1,
      "dactt": 0,
      "vp": null,
      "retr": null,
      "uacl": 880333093887
    },
    {
      "nm": "F036",
      "cls": 2,
      "id": 7017,
      "mu": 0,
      "uid": "4764335952",
      "uid2": "",
      "hw": 435,
      "ph": "",
      "ph2": "",
      "psw": "",
      "act": 1,
      "dactt": 0,
      "vp": null,
      "retr": null,
      "uacl": 880333093887
    },
    {
      "nm": "F037",
      "cls": 2,
      "id": 7303,
      "mu": 0,
      "uid": "4675335725",
      "uid2": "",
      "hw": 435,
      "ph": "+526566263745",
      "ph2": "",
      "psw": "",
      "act": 1,
      "dactt": 0,
      "vp": null,
      "retr": null,
      "uacl": 880333093887
    },
    {
      "nm": "F038",
      "cls": 2,
      "id": 7305,
      "mu": 0,
      "uid": "4675335983",
      "uid2": "",
      "hw": 435,
      "ph": "+526563373649",
      "ph2": "",
      "psw": "",
      "act": 1,
      "dactt": 0,
      "vp": null,
      "retr": null,
      "uacl": 880333093887
    },
    {
      "nm": "F045",
      "cls": 2,
      "id": 4303,
      "mu": 0,
      "uid": "4764354716",
      "uid2": "",
      "hw": 435,
      "ph": "+526566013764",
      "ph2": "",
      "psw": "",
      "act": 1,
      "dactt": 0,
      "vp": null,
      "retr": null,
      "uacl": 880333093887
    },
    {
      "nm": "F050",
      "cls": 2,
      "id": 4305,
      "mu": 0,
      "uid": "4764347682",
      "uid2": "",
      "hw": 435,
      "ph": "+526561328392",
      "ph2": "",
      "psw": "",
      "act": 1,
      "dactt": 0,
      "vp": null,
      "retr": null,
      "uacl": 880333093887
    },
    {
      "nm": "F051",
      "cls": 2,
      "id": 4159,
      "mu": 0,
      "uid": "4764353249",
      "uid2": "",
      "hw": 435,
      "ph": "+526563373701",
      "ph2": "",
      "psw": "",
      "act": 1,
      "dactt": 0,
      "vp": null,
      "retr": null,
      "uacl": 880333093887
    },
    {
      "nm": "F060",
      "cls": 2,
      "id": 4409,
      "mu": 0,
      "uid": "4764353381",
      "uid2": "",
      "hw": 435,
      "ph": "+526563371641",
      "ph2": "",
      "psw": "",
      "act": 1,
      "dactt": 0,
      "vp": null,
      "retr": null,
      "uacl": 880333093887
    },
    {
      "nm": "F061",
      "cls": 2,
      "id": 4306,
      "mu": 0,
      "uid": "4764347697",
      "uid2": "",
      "hw": 435,
      "ph": "+526561258416",
      "ph2": "",
      "psw": "",
      "act": 1,
      "dactt": 0,
      "vp": null,
      "retr": null,
      "uacl": 880333093887
    },
    {
      "nm": "F069",
      "cls": 2,
      "id": 4307,
      "mu": 0,
      "uid": "4675335873",
      "uid2": "",
      "hw": 435,
      "ph": "+526563372691",
      "ph2": "",
      "psw": "",
      "act": 1,
      "dactt": 0,
      "vp": null,
      "retr": null,
      "uacl": 880333093887
    },
    {
      "nm": "F074",
      "cls": 2,
      "id": 4166,
      "mu": 0,
      "uid": "4764346503",
      "uid2": "",
      "hw": 435,
      "ph": "+526561679558",
      "ph2": "",
      "psw": "",
      "act": 1,
      "dactt": 0,
      "vp": null,
      "retr": null,
      "uacl": 880333093887
    },
    {
      "nm": "F077",
      "cls": 2,
      "id": 7630,
      "mu": 0,
      "uid": "4675335615",
      "uid2": "",
      "hw": 435,
      "ph": "+526567053826",
      "ph2": "",
      "psw": "",
      "act": 1,
      "dactt": 0,
      "vp": null,
      "retr": null,
      "uacl": 880333093887
    },
    {
      "nm": "F082",
      "cls": 2,
      "id": 4668,
      "mu": 0,
      "uid": "4764354742",
      "uid2": "",
      "hw": 435,
      "ph": "",
      "ph2": "",
      "psw": "",
      "act": 1,
      "dactt": 0,
      "vp": null,
      "retr": null,
      "uacl": 880333093887
    },
    {
      "nm": "F086",
      "cls": 2,
      "id": 4309,
      "mu": 0,
      "uid": "4764353387",
      "uid2": "",
      "hw": 435,
      "ph": "+526563373817",
      "ph2": "",
      "psw": "",
      "act": 1,
      "dactt": 0,
      "vp": null,
      "retr": null,
      "uacl": 880333093887
    },
    {
      "nm": "F087",
      "cls": 2,
      "id": 4310,
      "mu": 0,
      "uid": "4764347689",
      "uid2": "",
      "hw": 435,
      "ph": "+526563521957",
      "ph2": "",
      "psw": "",
      "act": 1,
      "dactt": 0,
      "vp": null,
      "retr": null,
      "uacl": 880333093887
    },
    {
      "nm": "F088",
      "cls": 2,
      "id": 4311,
      "mu": 0,
      "uid": "4764347686",
      "uid2": "",
      "hw": 435,
      "ph": "+526561995586",
      "ph2": "",
      "psw": "",
      "act": 1,
      "dactt": 0,
      "vp": null,
      "retr": null,
      "uacl": 880333093887
    },
    {
      "nm": "F089",
      "cls": 2,
      "id": 4312,
      "mu": 0,
      "uid": "4764347684",
      "uid2": "",
      "hw": 435,
      "ph": "+526561688010",
      "ph2": "",
      "psw": "",
      "act": 1,
      "dactt": 0,
      "vp": null,
      "retr": null,
      "uacl": 880333093887
    },
    {
      "nm": "F090",
      "cls": 2,
      "id": 4313,
      "mu": 0,
      "uid": "4764347695",
      "uid2": "",
      "hw": 435,
      "ph": "+526563012625",
      "ph2": "",
      "psw": "",
      "act": 1,
      "dactt": 0,
      "vp": null,
      "retr": null,
      "uacl": 880333093887
    },
    {
      "nm": "F091",
      "cls": 2,
      "id": 4314,
      "mu": 0,
      "uid": "4764347693",
      "uid2": "",
      "hw": 435,
      "ph": "+526561353320",
      "ph2": "",
      "psw": "",
      "act": 1,
      "dactt": 0,
      "vp": null,
      "retr": null,
      "uacl": 880333093887
    },
    {
      "nm": "F092",
      "cls": 2,
      "id": 4315,
      "mu": 0,
      "uid": "4764347687",
      "uid2": "",
      "hw": 435,
      "ph": "+526565628048",
      "ph2": "",
      "psw": "",
      "act": 1,
      "dactt": 0,
      "vp": null,
      "retr": null,
      "uacl": 880333093887
    },
    {
      "nm": "F094",
      "cls": 2,
      "id": 4316,
      "mu": 0,
      "uid": "4764346291",
      "uid2": "",
      "hw": 435,
      "ph": "+526561663396",
      "ph2": "",
      "psw": "",
      "act": 1,
      "dactt": 0,
      "vp": null,
      "retr": null,
      "uacl": 880333093887
    },
    {
      "nm": "F095",
      "cls": 2,
      "id": 4317,
      "mu": 0,
      "uid": "4764346293",
      "uid2": "",
      "hw": 435,
      "ph": "+526563590133",
      "ph2": "",
      "psw": "",
      "act": 1,
      "dactt": 0,
      "vp": null,
      "retr": null,
      "uacl": 880333093887
    },
    {
      "nm": "F097",
      "cls": 2,
      "id": 4318,
      "mu": 0,
      "uid": "4764347690",
      "uid2": "",
      "hw": 435,
      "ph": "+526566382739",
      "ph2": "",
      "psw": "",
      "act": 1,
      "dactt": 0,
      "vp": null,
      "retr": null,
      "uacl": 880333093887
    },
    {
      "nm": "F098",
      "cls": 2,
      "id": 4319,
      "mu": 0,
      "uid": "4764347688",
      "uid2": "",
      "hw": 435,
      "ph": "+526566385684",
      "ph2": "",
      "psw": "",
      "act": 1,
      "dactt": 0,
      "vp": null,
      "retr": null,
      "uacl": 880333093887
    },
    {
      "nm": "F099",
      "cls": 2,
      "id": 4162,
      "mu": 0,
      "uid": "4764353388",
      "uid2": "",
      "hw": 435,
      "ph": "+526562158984",
      "ph2": "",
      "psw": "",
      "act": 1,
      "dactt": 0,
      "vp": null,
      "retr": null,
      "uacl": 880333093887
    },
    {
      "nm": "F100",
      "cls": 2,
      "id": 4320,
      "mu": 0,
      "uid": "4764354702",
      "uid2": "",
      "hw": 435,
      "ph": "+526563371924",
      "ph2": "",
      "psw": "",
      "act": 1,
      "dactt": 0,
      "vp": null,
      "retr": null,
      "uacl": 880333093887
    },
    {
      "nm": "F101",
      "cls": 2,
      "id": 4760,
      "mu": 0,
      "uid": "4764354696",
      "uid2": "",
      "hw": 435,
      "ph": "",
      "ph2": "",
      "psw": "",
      "act": 1,
      "dactt": 0,
      "vp": null,
      "retr": null,
      "uacl": 880333093887
    },
    {
      "nm": "F102",
      "cls": 2,
      "id": 4757,
      "mu": 0,
      "uid": "4764354713",
      "uid2": "",
      "hw": 435,
      "ph": "",
      "ph2": "",
      "psw": "",
      "act": 1,
      "dactt": 0,
      "vp": null,
      "retr": null,
      "uacl": 880333093887
    },
    {
      "nm": "F103",
      "cls": 2,
      "id": 4758,
      "mu": 0,
      "uid": "4764354717",
      "uid2": "",
      "hw": 435,
      "ph": "",
      "ph2": "",
      "psw": "",
      "act": 1,
      "dactt": 0,
      "vp": null,
      "retr": null,
      "uacl": 880333093887
    },
    {
      "nm": "F104",
      "cls": 2,
      "id": 4783,
      "mu": 0,
      "uid": "4764354600",
      "uid2": "",
      "hw": 435,
      "ph": "",
      "ph2": "",
      "psw": "",
      "act": 1,
      "dactt": 0,
      "vp": null,
      "retr": null,
      "uacl": 880333093887
    },
    {
      "nm": "F105",
      "cls": 2,
      "id": 4772,
      "mu": 0,
      "uid": "4764354598",
      "uid2": "",
      "hw": 435,
      "ph": "",
      "ph2": "",
      "psw": "",
      "act": 1,
      "dactt": 0,
      "vp": null,
      "retr": null,
      "uacl": 880333093887
    },
    {
      "nm": "F106",
      "cls": 2,
      "id": 4762,
      "mu": 0,
      "uid": "4764354734",
      "uid2": "",
      "hw": 435,
      "ph": "",
      "ph2": "",
      "psw": "",
      "act": 1,
      "dactt": 0,
      "vp": null,
      "retr": null,
      "uacl": 880333093887
    },
    {
      "nm": "F107",
      "cls": 2,
      "id": 4321,
      "mu": 0,
      "uid": "4764347696",
      "uid2": "",
      "hw": 435,
      "ph": "+526563608765",
      "ph2": "",
      "psw": "",
      "act": 1,
      "dactt": 0,
      "vp": null,
      "retr": null,
      "uacl": 880333093887
    },
    {
      "nm": "F108",
      "cls": 2,
      "id": 4322,
      "mu": 0,
      "uid": "4764347694",
      "uid2": "",
      "hw": 435,
      "ph": "+526565575675",
      "ph2": "",
      "psw": "",
      "act": 1,
      "dactt": 0,
      "vp": null,
      "retr": null,
      "uacl": 880333093887
    },
    {
      "nm": "F110",
      "cls": 2,
      "id": 4323,
      "mu": 0,
      "uid": "4764347681",
      "uid2": "",
      "hw": 435,
      "ph": "+526562152069",
      "ph2": "",
      "psw": "",
      "act": 1,
      "dactt": 0,
      "vp": null,
      "retr": null,
      "uacl": 880333093887
    },
    {
      "nm": "H136",
      "cls": 2,
      "id": 4325,
      "mu": 0,
      "uid": "4764339386",
      "uid2": "",
      "hw": 435,
      "ph": "+526566380973",
      "ph2": "",
      "psw": "",
      "act": 1,
      "dactt": 0,
      "vp": null,
      "retr": null,
      "uacl": 880333093887
    },
    {
      "nm": "H137",
      "cls": 2,
      "id": 4326,
      "mu": 0,
      "uid": "4764346499",
      "uid2": "",
      "hw": 435,
      "ph": "+526566269054",
      "ph2": "",
      "psw": "",
      "act": 1,
      "dactt": 0,
      "vp": null,
      "retr": null,
      "uacl": 880333093887
    },
    {
      "nm": "L001",
      "cls": 2,
      "id": 4327,
      "mu": 0,
      "uid": "4764354712",
      "uid2": "",
      "hw": 435,
      "ph": "+526563592332",
      "ph2": "",
      "psw": "",
      "act": 1,
      "dactt": 0,
      "vp": null,
      "retr": null,
      "uacl": 880333093887
    },
    {
      "nm": "L002",
      "cls": 2,
      "id": 4328,
      "mu": 0,
      "uid": "4764339378",
      "uid2": "",
      "hw": 435,
      "ph": "+526566269428",
      "ph2": "",
      "psw": "",
      "act": 1,
      "dactt": 0,
      "vp": null,
      "retr": null,
      "uacl": 880333093887
    },
    {
      "nm": "L004",
      "cls": 2,
      "id": 4155,
      "mu": 0,
      "uid": "4764345075",
      "uid2": "",
      "hw": 435,
      "ph": "+526563591363",
      "ph2": "",
      "psw": "",
      "act": 1,
      "dactt": 0,
      "vp": null,
      "retr": null,
      "uacl": 880333093887
    },
    {
      "nm": "L006",
      "cls": 2,
      "id": 4329,
      "mu": 0,
      "uid": "4764339381",
      "uid2": "",
      "hw": 435,
      "ph": "+526566450409",
      "ph2": "",
      "psw": "",
      "act": 1,
      "dactt": 0,
      "vp": null,
      "retr": null,
      "uacl": 880333093887
    },
    {
      "nm": "L007",
      "cls": 2,
      "id": 4330,
      "mu": 0,
      "uid": "4764354640",
      "uid2": "",
      "hw": 435,
      "ph": "+526563371214",
      "ph2": "",
      "psw": "",
      "act": 1,
      "dactt": 0,
      "vp": null,
      "retr": null,
      "uacl": 880333093887
    },
    {
      "nm": "L008",
      "cls": 2,
      "id": 4151,
      "mu": 0,
      "uid": "4675104986",
      "uid2": "",
      "hw": 435,
      "ph": "+526566269072",
      "ph2": "",
      "psw": "",
      "act": 1,
      "dactt": 0,
      "vp": null,
      "retr": null,
      "uacl": 880333093887
    },
    {
      "nm": "L009",
      "cls": 2,
      "id": 4149,
      "mu": 0,
      "uid": "4764339314",
      "uid2": "",
      "hw": 435,
      "ph": "+526566387160",
      "ph2": "",
      "psw": "",
      "act": 1,
      "dactt": 0,
      "vp": null,
      "retr": null,
      "uacl": 880333093887
    },
    {
      "nm": "L010",
      "cls": 2,
      "id": 4331,
      "mu": 0,
      "uid": "4764346500",
      "uid2": "",
      "hw": 435,
      "ph": "+526566267492",
      "ph2": "",
      "psw": "",
      "act": 1,
      "dactt": 0,
      "vp": null,
      "retr": null,
      "uacl": 880333093887
    },
    {
      "nm": "L011",
      "cls": 2,
      "id": 4332,
      "mu": 0,
      "uid": "4764346292",
      "uid2": "",
      "hw": 435,
      "ph": "+526566385611",
      "ph2": "",
      "psw": "",
      "act": 1,
      "dactt": 0,
      "vp": null,
      "retr": null,
      "uacl": 880333093887
    },
    {
      "nm": "L012",
      "cls": 2,
      "id": 4150,
      "mu": 0,
      "uid": "4764339370",
      "uid2": "",
      "hw": 435,
      "ph": "+526566388679",
      "ph2": "",
      "psw": "",
      "act": 1,
      "dactt": 0,
      "vp": null,
      "retr": null,
      "uacl": 880333093887
    },
    {
      "nm": "L013",
      "cls": 2,
      "id": 4333,
      "mu": 0,
      "uid": "4764347683",
      "uid2": "",
      "hw": 435,
      "ph": "+526566387983",
      "ph2": "",
      "psw": "",
      "act": 1,
      "dactt": 0,
      "vp": null,
      "retr": null,
      "uacl": 880333093887
    },
    {
      "nm": "L014",
      "cls": 2,
      "id": 4334,
      "mu": 0,
      "uid": "4764344871",
      "uid2": "",
      "hw": 435,
      "ph": "+526566385781",
      "ph2": "",
      "psw": "",
      "act": 1,
      "dactt": 0,
      "vp": null,
      "retr": null,
      "uacl": 880333093887
    },
    {
      "nm": "L015",
      "cls": 2,
      "id": 4335,
      "mu": 0,
      "uid": "4764346506",
      "uid2": "",
      "hw": 435,
      "ph": "+526565627246",
      "ph2": "",
      "psw": "",
      "act": 1,
      "dactt": 0,
      "vp": null,
      "retr": null,
      "uacl": 880333093887
    },
    {
      "nm": "L016",
      "cls": 2,
      "id": 4336,
      "mu": 0,
      "uid": "4764345171",
      "uid2": "",
      "hw": 435,
      "ph": "+526566380034",
      "ph2": "",
      "psw": "",
      "act": 1,
      "dactt": 0,
      "vp": null,
      "retr": null,
      "uacl": 880333093887
    },
    {
      "nm": "L017",
      "cls": 2,
      "id": 4337,
      "mu": 0,
      "uid": "4764347679",
      "uid2": "",
      "hw": 435,
      "ph": "+526562876413",
      "ph2": "",
      "psw": "",
      "act": 1,
      "dactt": 0,
      "vp": null,
      "retr": null,
      "uacl": 880333093887
    },
    {
      "nm": "L019",
      "cls": 2,
      "id": 4769,
      "mu": 0,
      "uid": "4764354565",
      "uid2": "",
      "hw": 435,
      "ph": "",
      "ph2": "",
      "psw": "",
      "act": 1,
      "dactt": 0,
      "vp": null,
      "retr": null,
      "uacl": 880333093887
    },
    {
      "nm": "L020",
      "cls": 2,
      "id": 4154,
      "mu": 0,
      "uid": "4764344908",
      "uid2": "",
      "hw": 435,
      "ph": "+526563094329",
      "ph2": "",
      "psw": "",
      "act": 1,
      "dactt": 0,
      "vp": null,
      "retr": null,
      "uacl": 880333093887
    },
    {
      "nm": "L021",
      "cls": 2,
      "id": 4786,
      "mu": 0,
      "uid": "4764354582",
      "uid2": "",
      "hw": 435,
      "ph": "",
      "ph2": "",
      "psw": "",
      "act": 1,
      "dactt": 0,
      "vp": null,
      "retr": null,
      "uacl": 880333093887
    },
    {
      "nm": "L022",
      "cls": 2,
      "id": 4775,
      "mu": 0,
      "uid": "4764354701",
      "uid2": "",
      "hw": 435,
      "ph": "",
      "ph2": "",
      "psw": "",
      "act": 1,
      "dactt": 0,
      "vp": null,
      "retr": null,
      "uacl": 880333093887
    },
    {
      "nm": "L025",
      "cls": 2,
      "id": 4153,
      "mu": 0,
      "uid": "4764344907",
      "uid2": "",
      "hw": 435,
      "ph": "+526563117162",
      "ph2": "",
      "psw": "",
      "act": 1,
      "dactt": 0,
      "vp": null,
      "retr": null,
      "uacl": 880333093887
    },
    {
      "nm": "L026",
      "cls": 2,
      "id": 4338,
      "mu": 0,
      "uid": "4764346290",
      "uid2": "",
      "hw": 435,
      "ph": "+526563499997",
      "ph2": "",
      "psw": "",
      "act": 1,
      "dactt": 0,
      "vp": null,
      "retr": null,
      "uacl": 880333093887
    },
    {
      "nm": "L027",
      "cls": 2,
      "id": 4339,
      "mu": 0,
      "uid": "4764339372",
      "uid2": "",
      "hw": 435,
      "ph": "+526566260614",
      "ph2": "",
      "psw": "",
      "act": 1,
      "dactt": 0,
      "vp": null,
      "retr": null,
      "uacl": 880333093887
    },
    {
      "nm": "L028",
      "cls": 2,
      "id": 4340,
      "mu": 0,
      "uid": "4764345168",
      "uid2": "",
      "hw": 435,
      "ph": "+526566380573",
      "ph2": "",
      "psw": "",
      "act": 1,
      "dactt": 0,
      "vp": null,
      "retr": null,
      "uacl": 880333093887
    },
    {
      "nm": "L029",
      "cls": 2,
      "id": 4776,
      "mu": 0,
      "uid": "4764354607",
      "uid2": "",
      "hw": 435,
      "ph": "",
      "ph2": "",
      "psw": "",
      "act": 1,
      "dactt": 0,
      "vp": null,
      "retr": null,
      "uacl": 880333093887
    },
    {
      "nm": "L030",
      "cls": 2,
      "id": 4341,
      "mu": 0,
      "uid": "4764345144",
      "uid2": "",
      "hw": 435,
      "ph": "+526566262353",
      "ph2": "",
      "psw": "",
      "act": 1,
      "dactt": 0,
      "vp": null,
      "retr": null,
      "uacl": 880333093887
    },
    {
      "nm": "L031",
      "cls": 2,
      "id": 6267,
      "mu": 0,
      "uid": "4675104284",
      "uid2": "",
      "hw": 435,
      "ph": "",
      "ph2": "",
      "psw": "",
      "act": 1,
      "dactt": 0,
      "vp": null,
      "retr": null,
      "uacl": 880333093887
    },
    {
      "nm": "L032",
      "cls": 2,
      "id": 4342,
      "mu": 0,
      "uid": "4764354704",
      "uid2": "",
      "hw": 435,
      "ph": "+526563371811",
      "ph2": "",
      "psw": "",
      "act": 1,
      "dactt": 0,
      "vp": null,
      "retr": null,
      "uacl": 880333093887
    },
    {
      "nm": "L035",
      "cls": 2,
      "id": 4157,
      "mu": 0,
      "uid": "4764347685",
      "uid2": "",
      "hw": 435,
      "ph": "+526563608103",
      "ph2": "",
      "psw": "",
      "act": 1,
      "dactt": 0,
      "vp": null,
      "retr": null,
      "uacl": 880333093887
    },
    {
      "nm": "L040",
      "cls": 2,
      "id": 4346,
      "mu": 0,
      "uid": "4764345148",
      "uid2": "",
      "hw": 435,
      "ph": "+526566450958",
      "ph2": "",
      "psw": "",
      "act": 1,
      "dactt": 0,
      "vp": null,
      "retr": null,
      "uacl": 880333093887
    },
    {
      "nm": "L041",
      "cls": 2,
      "id": 4347,
      "mu": 0,
      "uid": "4764346394",
      "uid2": "",
      "hw": 435,
      "ph": "+526566380906",
      "ph2": "",
      "psw": "",
      "act": 1,
      "dactt": 0,
      "vp": null,
      "retr": null,
      "uacl": 880333093887
    },
    {
      "nm": "L044",
      "cls": 2,
      "id": 4348,
      "mu": 0,
      "uid": "4764339390",
      "uid2": "",
      "hw": 435,
      "ph": "+526566264038",
      "ph2": "",
      "psw": "",
      "act": 1,
      "dactt": 0,
      "vp": null,
      "retr": null,
      "uacl": 880333093887
    },
    {
      "nm": "L045",
      "cls": 2,
      "id": 4152,
      "mu": 0,
      "uid": "4764339385",
      "uid2": "",
      "hw": 435,
      "ph": "+526565627251",
      "ph2": "",
      "psw": "",
      "act": 1,
      "dactt": 0,
      "vp": null,
      "retr": null,
      "uacl": 880333093887
    },
    {
      "nm": "L049",
      "cls": 2,
      "id": 7656,
      "mu": 0,
      "uid": "4675335029",
      "uid2": "",
      "hw": 435,
      "ph": "+526567053863",
      "ph2": "",
      "psw": "",
      "act": 1,
      "dactt": 0,
      "vp": null,
      "retr": null,
      "uacl": 880333093887
    },
    {
      "nm": "L050",
      "cls": 2,
      "id": 4350,
      "mu": 0,
      "uid": "4764354736",
      "uid2": "",
      "hw": 435,
      "ph": "+526563372712",
      "ph2": "",
      "psw": "",
      "act": 1,
      "dactt": 0,
      "vp": null,
      "retr": null,
      "uacl": 880333093887
    },
    {
      "nm": "L051",
      "cls": 2,
      "id": 4351,
      "mu": 0,
      "uid": "4764345175",
      "uid2": "",
      "hw": 435,
      "ph": "+526566381021",
      "ph2": "",
      "psw": "",
      "act": 1,
      "dactt": 0,
      "vp": null,
      "retr": null,
      "uacl": 880333093887
    },
    {
      "nm": "L052",
      "cls": 2,
      "id": 4352,
      "mu": 0,
      "uid": "4764346247",
      "uid2": "",
      "hw": 435,
      "ph": "+526566383842",
      "ph2": "",
      "psw": "",
      "act": 1,
      "dactt": 0,
      "vp": null,
      "retr": null,
      "uacl": 880333093887
    },
    {
      "nm": "L053",
      "cls": 2,
      "id": 4353,
      "mu": 0,
      "uid": "4764354683",
      "uid2": "",
      "hw": 435,
      "ph": "+526563370791",
      "ph2": "",
      "psw": "",
      "act": 1,
      "dactt": 0,
      "vp": null,
      "retr": null,
      "uacl": 880333093887
    },
    {
      "nm": "L054",
      "cls": 2,
      "id": 4354,
      "mu": 0,
      "uid": "4764339379",
      "uid2": "",
      "hw": 435,
      "ph": "+526566263866",
      "ph2": "",
      "psw": "",
      "act": 1,
      "dactt": 0,
      "vp": null,
      "retr": null,
      "uacl": 880333093887
    },
    {
      "nm": "L055",
      "cls": 2,
      "id": 4355,
      "mu": 0,
      "uid": "4764339376",
      "uid2": "",
      "hw": 435,
      "ph": "+526566382733",
      "ph2": "",
      "psw": "",
      "act": 1,
      "dactt": 0,
      "vp": null,
      "retr": null,
      "uacl": 880333093887
    },
    {
      "nm": "L056",
      "cls": 2,
      "id": 4356,
      "mu": 0,
      "uid": "4764345053",
      "uid2": "",
      "hw": 435,
      "ph": "+526566383365",
      "ph2": "",
      "psw": "",
      "act": 1,
      "dactt": 0,
      "vp": null,
      "retr": null,
      "uacl": 880333093887
    },
    {
      "nm": "L057",
      "cls": 2,
      "id": 4357,
      "mu": 0,
      "uid": "4764354577",
      "uid2": "",
      "hw": 435,
      "ph": "+526566380578",
      "ph2": "",
      "psw": "",
      "act": 1,
      "dactt": 0,
      "vp": null,
      "retr": null,
      "uacl": 880333093887
    },
    {
      "nm": "L058",
      "cls": 2,
      "id": 4358,
      "mu": 0,
      "uid": "4764345169",
      "uid2": "",
      "hw": 435,
      "ph": "+526566388050",
      "ph2": "",
      "psw": "",
      "act": 1,
      "dactt": 0,
      "vp": null,
      "retr": null,
      "uacl": 880333093887
    },
    {
      "nm": "L059",
      "cls": 2,
      "id": 4359,
      "mu": 0,
      "uid": "4764345146",
      "uid2": "",
      "hw": 435,
      "ph": "+526566450382",
      "ph2": "",
      "psw": "",
      "act": 1,
      "dactt": 0,
      "vp": null,
      "retr": null,
      "uacl": 880333093887
    },
    {
      "nm": "L061",
      "cls": 2,
      "id": 4360,
      "mu": 0,
      "uid": "4764354571",
      "uid2": "",
      "hw": 435,
      "ph": "+526563370427",
      "ph2": "",
      "psw": "",
      "act": 1,
      "dactt": 0,
      "vp": null,
      "retr": null,
      "uacl": 880333093887
    },
    {
      "nm": "L063",
      "cls": 2,
      "id": 6249,
      "mu": 0,
      "uid": "4675104059",
      "uid2": "",
      "hw": 435,
      "ph": "",
      "ph2": "",
      "psw": "",
      "act": 1,
      "dactt": 0,
      "vp": null,
      "retr": null,
      "uacl": 880333093887
    },
    {
      "nm": "L071",
      "cls": 2,
      "id": 4362,
      "mu": 0,
      "uid": "4764354694",
      "uid2": "",
      "hw": 435,
      "ph": "+526563592532",
      "ph2": "",
      "psw": "",
      "act": 1,
      "dactt": 0,
      "vp": null,
      "retr": null,
      "uacl": 880333093887
    },
    {
      "nm": "L072",
      "cls": 2,
      "id": 4363,
      "mu": 0,
      "uid": "4764349964",
      "uid2": "",
      "hw": 435,
      "ph": "+526566262097",
      "ph2": "",
      "psw": "",
      "act": 1,
      "dactt": 0,
      "vp": null,
      "retr": null,
      "uacl": 880333093887
    },
    {
      "nm": "L073",
      "cls": 2,
      "id": 4364,
      "mu": 0,
      "uid": "4764339375",
      "uid2": "",
      "hw": 435,
      "ph": "+526566384019",
      "ph2": "",
      "psw": "",
      "act": 1,
      "dactt": 0,
      "vp": null,
      "retr": null,
      "uacl": 880333093887
    },
    {
      "nm": "L074",
      "cls": 2,
      "id": 4365,
      "mu": 0,
      "uid": "4675288208",
      "uid2": "",
      "hw": 435,
      "ph": "",
      "ph2": "",
      "psw": "",
      "act": 1,
      "dactt": 0,
      "vp": null,
      "retr": null,
      "uacl": 880333093887
    },
    {
      "nm": "L075",
      "cls": 2,
      "id": 6247,
      "mu": 0,
      "uid": "4675104075",
      "uid2": "",
      "hw": 435,
      "ph": "",
      "ph2": "",
      "psw": "",
      "act": 1,
      "dactt": 0,
      "vp": null,
      "retr": null,
      "uacl": 880333093887
    },
    {
      "nm": "L090",
      "cls": 2,
      "id": 4366,
      "mu": 0,
      "uid": "4764354670",
      "uid2": "",
      "hw": 435,
      "ph": "+526563372397",
      "ph2": "",
      "psw": "",
      "act": 1,
      "dactt": 0,
      "vp": null,
      "retr": null,
      "uacl": 880333093887
    },
    {
      "nm": "L092",
      "cls": 2,
      "id": 4367,
      "mu": 0,
      "uid": "4764354396",
      "uid2": "",
      "hw": 435,
      "ph": "+526561327177",
      "ph2": "",
      "psw": "",
      "act": 1,
      "dactt": 0,
      "vp": null,
      "retr": null,
      "uacl": 880333093887
    },
    {
      "nm": "L093",
      "cls": 2,
      "id": 4368,
      "mu": 0,
      "uid": "4764354681",
      "uid2": "",
      "hw": 435,
      "ph": "+526563371695",
      "ph2": "",
      "psw": "",
      "act": 1,
      "dactt": 0,
      "vp": null,
      "retr": null,
      "uacl": 880333093887
    },
    {
      "nm": "L094",
      "cls": 2,
      "id": 4369,
      "mu": 0,
      "uid": "4764335949",
      "uid2": "",
      "hw": 435,
      "ph": "+526562741284",
      "ph2": "",
      "psw": "",
      "act": 1,
      "dactt": 0,
      "vp": null,
      "retr": null,
      "uacl": 880333093887
    },
    {
      "nm": "L108",
      "cls": 2,
      "id": 4370,
      "mu": 0,
      "uid": "4764354373",
      "uid2": "",
      "hw": 435,
      "ph": "+526566389213",
      "ph2": "",
      "psw": "",
      "act": 1,
      "dactt": 0,
      "vp": null,
      "retr": null,
      "uacl": 880333093887
    },
    {
      "nm": "L110",
      "cls": 2,
      "id": 4371,
      "mu": 0,
      "uid": "4764354686",
      "uid2": "",
      "hw": 435,
      "ph": "+526563370545",
      "ph2": "",
      "psw": "",
      "act": 1,
      "dactt": 0,
      "vp": null,
      "retr": null,
      "uacl": 880333093887
    },
    {
      "nm": "L111",
      "cls": 2,
      "id": 4372,
      "mu": 0,
      "uid": "4764335941",
      "uid2": "",
      "hw": 435,
      "ph": "+526565629502",
      "ph2": "",
      "psw": "",
      "act": 1,
      "dactt": 0,
      "vp": null,
      "retr": null,
      "uacl": 880333093887
    },
    {
      "nm": "L112",
      "cls": 2,
      "id": 4156,
      "mu": 0,
      "uid": "4764345172",
      "uid2": "",
      "hw": 435,
      "ph": "+526566262247",
      "ph2": "",
      "psw": "",
      "act": 1,
      "dactt": 0,
      "vp": null,
      "retr": null,
      "uacl": 880333093887
    },
    {
      "nm": "L115",
      "cls": 2,
      "id": 4373,
      "mu": 0,
      "uid": "4764354685",
      "uid2": "",
      "hw": 435,
      "ph": "+526563370567",
      "ph2": "",
      "psw": "",
      "act": 1,
      "dactt": 0,
      "vp": null,
      "retr": null,
      "uacl": 880333093887
    },
    {
      "nm": "L116",
      "cls": 2,
      "id": 4374,
      "mu": 0,
      "uid": "4675335841",
      "uid2": "",
      "hw": 435,
      "ph": "+526563373933",
      "ph2": "",
      "psw": "",
      "act": 1,
      "dactt": 0,
      "vp": null,
      "retr": null,
      "uacl": 880333093887
    },
    {
      "nm": "L117",
      "cls": 2,
      "id": 4375,
      "mu": 0,
      "uid": "4764354637",
      "uid2": "",
      "hw": 435,
      "ph": "+526563372828",
      "ph2": "",
      "psw": "",
      "act": 1,
      "dactt": 0,
      "vp": null,
      "retr": null,
      "uacl": 880333093887
    },
    {
      "nm": "L118",
      "cls": 2,
      "id": 4376,
      "mu": 0,
      "uid": "4764354689",
      "uid2": "",
      "hw": 435,
      "ph": "+526563372430",
      "ph2": "",
      "psw": "",
      "act": 1,
      "dactt": 0,
      "vp": null,
      "retr": null,
      "uacl": 880333093887
    },
    {
      "nm": "L119",
      "cls": 2,
      "id": 4377,
      "mu": 0,
      "uid": "4764354663",
      "uid2": "",
      "hw": 435,
      "ph": "+526563371976",
      "ph2": "",
      "psw": "",
      "act": 1,
      "dactt": 0,
      "vp": null,
      "retr": null,
      "uacl": 880333093887
    },
    {
      "nm": "L120",
      "cls": 2,
      "id": 4378,
      "mu": 0,
      "uid": "4764354656",
      "uid2": "",
      "hw": 435,
      "ph": "+526563370816",
      "ph2": "",
      "psw": "",
      "act": 1,
      "dactt": 0,
      "vp": null,
      "retr": null,
      "uacl": 880333093887
    },
    {
      "nm": "L121",
      "cls": 2,
      "id": 4379,
      "mu": 0,
      "uid": "4764354725",
      "uid2": "",
      "hw": 435,
      "ph": "+526563410193",
      "ph2": "",
      "psw": "",
      "act": 1,
      "dactt": 0,
      "vp": null,
      "retr": null,
      "uacl": 880333093887
    },
    {
      "nm": "L128",
      "cls": 2,
      "id": 4380,
      "mu": 0,
      "uid": "4764354693",
      "uid2": "",
      "hw": 435,
      "ph": "+526563371951",
      "ph2": "",
      "psw": "",
      "act": 1,
      "dactt": 0,
      "vp": null,
      "retr": null,
      "uacl": 880333093887
    },
    {
      "nm": "L129",
      "cls": 2,
      "id": 4381,
      "mu": 0,
      "uid": "4764354652",
      "uid2": "",
      "hw": 435,
      "ph": "+526563371869",
      "ph2": "",
      "psw": "",
      "act": 1,
      "dactt": 0,
      "vp": null,
      "retr": null,
      "uacl": 880333093887
    },
    {
      "nm": "L133",
      "cls": 2,
      "id": 4382,
      "mu": 0,
      "uid": "4764345173",
      "uid2": "",
      "hw": 435,
      "ph": "+526566261392",
      "ph2": "",
      "psw": "",
      "act": 1,
      "dactt": 0,
      "vp": null,
      "retr": null,
      "uacl": 880333093887
    },
    {
      "nm": "L134",
      "cls": 2,
      "id": 4383,
      "mu": 0,
      "uid": "4764344883",
      "uid2": "",
      "hw": 435,
      "ph": "+526565629208",
      "ph2": "",
      "psw": "",
      "act": 1,
      "dactt": 0,
      "vp": null,
      "retr": null,
      "uacl": 880333093887
    },
    {
      "nm": "L136",
      "cls": 2,
      "id": 4384,
      "mu": 0,
      "uid": "4764354355",
      "uid2": "",
      "hw": 435,
      "ph": "+526561237795",
      "ph2": "",
      "psw": "",
      "act": 1,
      "dactt": 0,
      "vp": null,
      "retr": null,
      "uacl": 880333093887
    },
    {
      "nm": "LN-01",
      "cls": 2,
      "id": 4385,
      "mu": 0,
      "uid": "4764346253",
      "uid2": "",
      "hw": 435,
      "ph": "+526562851421",
      "ph2": "",
      "psw": "",
      "act": 1,
      "dactt": 0,
      "vp": null,
      "retr": null,
      "uacl": 880333093887
    },
    {
      "nm": "LN-02",
      "cls": 2,
      "id": 4386,
      "mu": 0,
      "uid": "4764346284",
      "uid2": "",
      "hw": 435,
      "ph": "+526563736208",
      "ph2": "",
      "psw": "",
      "act": 1,
      "dactt": 0,
      "vp": null,
      "retr": null,
      "uacl": 880333093887
    },
    {
      "nm": "LN-03",
      "cls": 2,
      "id": 4387,
      "mu": 0,
      "uid": "4675288177",
      "uid2": "",
      "hw": 435,
      "ph": "+526562815443",
      "ph2": "",
      "psw": "",
      "act": 1,
      "dactt": 0,
      "vp": null,
      "retr": null,
      "uacl": 880333093887
    },
    {
      "nm": "LN-04",
      "cls": 2,
      "id": 4388,
      "mu": 0,
      "uid": "4764346287",
      "uid2": "",
      "hw": 435,
      "ph": "+526563535210",
      "ph2": "",
      "psw": "",
      "act": 1,
      "dactt": 0,
      "vp": null,
      "retr": null,
      "uacl": 880333093887
    },
    {
      "nm": "LN-05",
      "cls": 2,
      "id": 4389,
      "mu": 0,
      "uid": "4764346288",
      "uid2": "",
      "hw": 435,
      "ph": "+526563605912",
      "ph2": "",
      "psw": "",
      "act": 1,
      "dactt": 0,
      "vp": null,
      "retr": null,
      "uacl": 880333093887
    },
    {
      "nm": "LN-06",
      "cls": 2,
      "id": 6248,
      "mu": 0,
      "uid": "4675104063",
      "uid2": "",
      "hw": 435,
      "ph": "",
      "ph2": "",
      "psw": "",
      "act": 1,
      "dactt": 0,
      "vp": null,
      "retr": null,
      "uacl": 880333093887
    },
    {
      "nm": "LN-07",
      "cls": 2,
      "id": 6403,
      "mu": 0,
      "uid": "4764339380",
      "uid2": "",
      "hw": 435,
      "ph": "",
      "ph2": "",
      "psw": "",
      "act": 1,
      "dactt": 0,
      "vp": null,
      "retr": null,
      "uacl": 880333093887
    },
    {
      "nm": "LN-08",
      "cls": 2,
      "id": 6246,
      "mu": 0,
      "uid": "4675104328",
      "uid2": "",
      "hw": 435,
      "ph": "",
      "ph2": "",
      "psw": "",
      "act": 1,
      "dactt": 0,
      "vp": null,
      "retr": null,
      "uacl": 880333093887
    },
    {
      "nm": "LN-09",
      "cls": 2,
      "id": 4390,
      "mu": 0,
      "uid": "4764346289",
      "uid2": "",
      "hw": 435,
      "ph": "+526563142788",
      "ph2": "",
      "psw": "",
      "act": 1,
      "dactt": 0,
      "vp": null,
      "retr": null,
      "uacl": 880333093887
    },
    {
      "nm": "LN-10",
      "cls": 2,
      "id": 6245,
      "mu": 0,
      "uid": "4675104321",
      "uid2": "",
      "hw": 435,
      "ph": "",
      "ph2": "",
      "psw": "",
      "act": 1,
      "dactt": 0,
      "vp": null,
      "retr": null,
      "uacl": 880333093887
    },
    {
      "nm": "LN-11",
      "cls": 2,
      "id": 4391,
      "mu": 0,
      "uid": "4764339377",
      "uid2": "",
      "hw": 435,
      "ph": "",
      "ph2": "",
      "psw": "",
      "act": 1,
      "dactt": 0,
      "vp": null,
      "retr": null,
      "uacl": 880333093887
    },
    {
      "nm": "LN-12",
      "cls": 2,
      "id": 7437,
      "mu": 0,
      "uid": "4764354695",
      "uid2": "",
      "hw": 435,
      "ph": "+526563765538",
      "ph2": "",
      "psw": "",
      "act": 1,
      "dactt": 0,
      "vp": null,
      "retr": null,
      "uacl": 880333093887
    },
    {
      "nm": "LN-13",
      "cls": 2,
      "id": 6622,
      "mu": 0,
      "uid": "4675288219",
      "uid2": "",
      "hw": 435,
      "ph": "",
      "ph2": "",
      "psw": "",
      "act": 1,
      "dactt": 0,
      "vp": null,
      "retr": null,
      "uacl": 880333093887
    },
    {
      "nm": "LN-14",
      "cls": 2,
      "id": 6272,
      "mu": 0,
      "uid": "4675105001",
      "uid2": "",
      "hw": 435,
      "ph": "",
      "ph2": "",
      "psw": "",
      "act": 1,
      "dactt": 0,
      "vp": null,
      "retr": null,
      "uacl": 880333093887
    },
    {
      "nm": "LN-15",
      "cls": 2,
      "id": 4392,
      "mu": 0,
      "uid": "4764347680",
      "uid2": "",
      "hw": 435,
      "ph": "+526561370581",
      "ph2": "",
      "psw": "",
      "act": 1,
      "dactt": 0,
      "vp": null,
      "retr": null,
      "uacl": 880333093887
    },
    {
      "nm": "LN-16",
      "cls": 2,
      "id": 4393,
      "mu": 0,
      "uid": "4764345174",
      "uid2": "",
      "hw": 435,
      "ph": "+526566450837",
      "ph2": "",
      "psw": "",
      "act": 1,
      "dactt": 0,
      "vp": null,
      "retr": null,
      "uacl": 880333093887
    },
    {
      "nm": "LN-17",
      "cls": 2,
      "id": 4394,
      "mu": 0,
      "uid": "4764346393",
      "uid2": "",
      "hw": 435,
      "ph": "+526566385073",
      "ph2": "",
      "psw": "",
      "act": 1,
      "dactt": 0,
      "vp": null,
      "retr": null,
      "uacl": 880333093887
    },
    {
      "nm": "LN-18",
      "cls": 2,
      "id": 4395,
      "mu": 0,
      "uid": "4764345176",
      "uid2": "",
      "hw": 435,
      "ph": "+526566261005",
      "ph2": "",
      "psw": "",
      "act": 1,
      "dactt": 0,
      "vp": null,
      "retr": null,
      "uacl": 880333093887
    },
    {
      "nm": "LN-19",
      "cls": 2,
      "id": 6266,
      "mu": 0,
      "uid": "4675100017",
      "uid2": "",
      "hw": 435,
      "ph": "",
      "ph2": "",
      "psw": "",
      "act": 1,
      "dactt": 0,
      "vp": null,
      "retr": null,
      "uacl": 880333093887
    },
    {
      "nm": "LN-20",
      "cls": 2,
      "id": 6269,
      "mu": 0,
      "uid": "4675104061",
      "uid2": "",
      "hw": 435,
      "ph": "",
      "ph2": "",
      "psw": "",
      "act": 1,
      "dactt": 0,
      "vp": null,
      "retr": null,
      "uacl": 880333093887
    },
    {
      "nm": "LN-21",
      "cls": 2,
      "id": 6261,
      "mu": 0,
      "uid": "4675104227",
      "uid2": "",
      "hw": 435,
      "ph": "",
      "ph2": "",
      "psw": "",
      "act": 1,
      "dactt": 0,
      "vp": null,
      "retr": null,
      "uacl": 880333093887
    },
    {
      "nm": "LN-22",
      "cls": 2,
      "id": 4396,
      "mu": 0,
      "uid": "4764346495",
      "uid2": "",
      "hw": 435,
      "ph": "+526565628591",
      "ph2": "",
      "psw": "",
      "act": 1,
      "dactt": 0,
      "vp": null,
      "retr": null,
      "uacl": 880333093887
    },
    {
      "nm": "LN-23",
      "cls": 2,
      "id": 6406,
      "mu": 0,
      "uid": "4675288179",
      "uid2": "",
      "hw": 435,
      "ph": "",
      "ph2": "",
      "psw": "",
      "act": 1,
      "dactt": 0,
      "vp": null,
      "retr": null,
      "uacl": 880333093887
    },
    {
      "nm": "LN-24",
      "cls": 2,
      "id": 4397,
      "mu": 0,
      "uid": "4764339388",
      "uid2": "",
      "hw": 435,
      "ph": "+526566262275",
      "ph2": "",
      "psw": "",
      "act": 1,
      "dactt": 0,
      "vp": null,
      "retr": null,
      "uacl": 880333093887
    },
    {
      "nm": "LN-25",
      "cls": 2,
      "id": 4398,
      "mu": 0,
      "uid": "4764354698",
      "uid2": "",
      "hw": 435,
      "ph": "+526566450849",
      "ph2": "",
      "psw": "",
      "act": 1,
      "dactt": 0,
      "vp": null,
      "retr": null,
      "uacl": 880333093887
    },
    {
      "nm": "LN-26",
      "cls": 2,
      "id": 4399,
      "mu": 0,
      "uid": "4764354744",
      "uid2": "",
      "hw": 435,
      "ph": "+526566387957",
      "ph2": "",
      "psw": "",
      "act": 1,
      "dactt": 0,
      "vp": null,
      "retr": null,
      "uacl": 880333093887
    },
    {
      "nm": "LN-27",
      "cls": 2,
      "id": 4400,
      "mu": 0,
      "uid": "4764346250",
      "uid2": "",
      "hw": 435,
      "ph": "+526566389854",
      "ph2": "",
      "psw": "",
      "act": 1,
      "dactt": 0,
      "vp": null,
      "retr": null,
      "uacl": 880333093887
    },
    {
      "nm": "LN-28",
      "cls": 2,
      "id": 6262,
      "mu": 0,
      "uid": "4675104286",
      "uid2": "",
      "hw": 435,
      "ph": "",
      "ph2": "",
      "psw": "",
      "act": 1,
      "dactt": 0,
      "vp": null,
      "retr": null,
      "uacl": 880333093887
    },
    {
      "nm": "LN-29",
      "cls": 2,
      "id": 6404,
      "mu": 0,
      "uid": "4764354543",
      "uid2": "",
      "hw": 435,
      "ph": "",
      "ph2": "",
      "psw": "",
      "act": 1,
      "dactt": 0,
      "vp": null,
      "retr": null,
      "uacl": 880333093887
    },
    {
      "nm": "LN-30",
      "cls": 2,
      "id": 4401,
      "mu": 0,
      "uid": "4764339383",
      "uid2": "",
      "hw": 435,
      "ph": "+526566266692",
      "ph2": "",
      "psw": "",
      "act": 1,
      "dactt": 0,
      "vp": null,
      "retr": null,
      "uacl": 880333093887
    },
    {
      "nm": "LN-31",
      "cls": 2,
      "id": 4402,
      "mu": 0,
      "uid": "4764353226",
      "uid2": "",
      "hw": 435,
      "ph": "+526563372629",
      "ph2": "",
      "psw": "",
      "act": 1,
      "dactt": 0,
      "vp": null,
      "retr": null,
      "uacl": 880333093887
    },
    {
      "nm": "LN-32",
      "cls": 2,
      "id": 6623,
      "mu": 0,
      "uid": "4675288176",
      "uid2": "",
      "hw": 435,
      "ph": "",
      "ph2": "",
      "psw": "",
      "act": 1,
      "dactt": 0,
      "vp": null,
      "retr": null,
      "uacl": 880333093887
    },
    {
      "nm": "LN-33",
      "cls": 2,
      "id": 6625,
      "mu": 0,
      "uid": "4675288180",
      "uid2": "",
      "hw": 435,
      "ph": "",
      "ph2": "",
      "psw": "",
      "act": 1,
      "dactt": 0,
      "vp": null,
      "retr": null,
      "uacl": 880333093887
    },
    {
      "nm": "LN-34",
      "cls": 2,
      "id": 6626,
      "mu": 0,
      "uid": "4675288182",
      "uid2": "",
      "hw": 435,
      "ph": "",
      "ph2": "",
      "psw": "",
      "act": 1,
      "dactt": 0,
      "vp": null,
      "retr": null,
      "uacl": 880333093887
    },
    {
      "nm": "LN-35",
      "cls": 2,
      "id": 6627,
      "mu": 0,
      "uid": "4764353288",
      "uid2": "",
      "hw": 435,
      "ph": "",
      "ph2": "",
      "psw": "",
      "act": 1,
      "dactt": 0,
      "vp": null,
      "retr": null,
      "uacl": 880333093887
    },
    {
      "nm": "LN-36",
      "cls": 2,
      "id": 6759,
      "mu": 0,
      "uid": "4675288175",
      "uid2": "",
      "hw": 435,
      "ph": "",
      "ph2": "",
      "psw": "",
      "act": 1,
      "dactt": 0,
      "vp": null,
      "retr": null,
      "uacl": 880333093887
    },
    {
      "nm": "MARCH-1",
      "cls": 2,
      "id": 4403,
      "mu": 0,
      "uid": "4764354337",
      "uid2": "",
      "hw": 435,
      "ph": "+526561009473",
      "ph2": "",
      "psw": "",
      "act": 1,
      "dactt": 0,
      "vp": null,
      "retr": null,
      "uacl": 880333093887
    },
    {
      "nm": "MARCH-2",
      "cls": 2,
      "id": 4404,
      "mu": 0,
      "uid": "4764354547",
      "uid2": "",
      "hw": 435,
      "ph": "+526562863888",
      "ph2": "",
      "psw": "",
      "act": 1,
      "dactt": 0,
      "vp": null,
      "retr": null,
      "uacl": 880333093887
    },
    {
      "nm": "SAVEIRO",
      "cls": 2,
      "id": 4405,
      "mu": 0,
      "uid": "4764354342",
      "uid2": "",
      "hw": 435,
      "ph": "+526562698152",
      "ph2": "",
      "psw": "",
      "act": 1,
      "dactt": 0,
      "vp": null,
      "retr": null,
      "uacl": 880333093887
    },
    {
      "nm": "T-002",
      "cls": 2,
      "id": 7692,
      "mu": 0,
      "uid": "4764336013",
      "uid2": "",
      "hw": 435,
      "ph": "+526567053888",
      "ph2": "",
      "psw": "",
      "act": 1,
      "dactt": 0,
      "vp": null,
      "retr": null,
      "uacl": 880333093887
    },
    {
      "nm": "T-022",
      "cls": 2,
      "id": 7694,
      "mu": 0,
      "uid": "4764335998",
      "uid2": "",
      "hw": 435,
      "ph": "+526567053781",
      "ph2": "",
      "psw": "",
      "act": 1,
      "dactt": 0,
      "vp": null,
      "retr": null,
      "uacl": 880333093887
    },
    {
      "nm": "T-30",
      "cls": 2,
      "id": 4407,
      "mu": 0,
      "uid": "4764354361",
      "uid2": "",
      "hw": 435,
      "ph": "+526562659521",
      "ph2": "",
      "psw": "",
      "act": 1,
      "dactt": 0,
      "vp": null,
      "retr": null,
      "uacl": 880333093887
    },
    {
      "nm": "T-35",
      "cls": 2,
      "id": 4408,
      "mu": 0,
      "uid": "4764346514",
      "uid2": "",
      "hw": 435,
      "ph": "+526563728817",
      "ph2": "",
      "psw": "",
      "act": 1,
      "dactt": 0,
      "vp": null,
      "retr": null,
      "uacl": 880333093887
    },
    {
      "nm": "T-036",
      "cls": 2,
      "id": 7992,
      "mu": 0,
      "uid": "4764354759",
      "uid2": "",
      "hw": 435,
      "ph": "+526567053308",
      "ph2": "",
      "psw": "",
      "act": 1,
      "dactt": 0,
      "vp": null,
      "retr": null,
      "uacl": 880333093887
    },
    {
      "nm": "T-041",
      "cls": 2,
      "id": 7693,
      "mu": 0,
      "uid": "4675335890",
      "uid2": "",
      "hw": 435,
      "ph": "+526563372009",
      "ph2": "",
      "psw": "",
      "act": 0,
      "dactt": 1683055861,
      "vp": null,
      "retr": null,
      "uacl": 880333093887
    },
    {
      "nm": "T014",
      "cls": 2,
      "id": 4784,
      "mu": 0,
      "uid": "4764354684",
      "uid2": "",
      "hw": 435,
      "ph": "",
      "ph2": "",
      "psw": "",
      "act": 1,
      "dactt": 0,
      "vp": null,
      "retr": null,
      "uacl": 880333093887
    },
    {
      "nm": "T027",
      "cls": 2,
      "id": 4406,
      "mu": 0,
      "uid": "4764354250",
      "uid2": "",
      "hw": 435,
      "ph": "+526561767301",
      "ph2": "",
      "psw": "",
      "act": 1,
      "dactt": 0,
      "vp": null,
      "retr": null,
      "uacl": 880333093887
    },
    {
      "nm": "Test",
      "cls": 2,
      "id": 7670,
      "mu": 0,
      "uid": "4764353392",
      "uid2": "",
      "hw": 435,
      "ph": "",
      "ph2": "",
      "psw": "",
      "act": 0,
      "dactt": 1677023389,
      "vp": null,
      "retr": null,
      "uacl": 880333093887
    }
  ]
}